<?xml version="1.0" encoding="UTF-8"?>
<session version="1.0">
<refactoring comment="Delete resource &apos;Zombe Modpack&apos;" deleteContents="false" description="Delete resource &apos;Zombe Modpack&apos;" element1="/Zombe Modpack" flags="7" id="org.eclipse.ltk.core.refactoring.delete.resources" resources="1" stamp="1339075943850"/>
</session>