{
  "user":{
    "name":"Player949",
    "sessionid":"local"
  },
  "stats-change":[
    {"1002":1},
    {"2000":4026},
    {"1100":484},
    {"1000":1},
    {"2010":6}
  ],
  "checksum":"fd8b35e3907af078fcaecb564faeaaf8"
}